------------------------------------------------------------------------
r1224988 | scripty | 2011-03-16 03:47:35 +1300 (Wed, 16 Mar 2011) | 1 line

SVN_SILENT made messages (.desktop file)
------------------------------------------------------------------------
