------------------------------------------------------------------------
r837140 | mueller | 2008-07-23 23:34:07 +0200 (Wed, 23 Jul 2008) | 1 line

adapt to new installation path
------------------------------------------------------------------------
r837308 | mueller | 2008-07-24 14:07:00 +0200 (Thu, 24 Jul 2008) | 2 lines

yet another rebuild for KDE 4.1.0

------------------------------------------------------------------------
r837368 | wstephens | 2008-07-24 15:59:16 +0200 (Thu, 24 Jul 2008) | 3 lines

Backport fix to IMAP resources to 4.1.  I'll try and get this into the
openSUSE KDE 4.1.0 rpms too.

------------------------------------------------------------------------
r837901 | tmcguire | 2008-07-26 01:46:16 +0200 (Sat, 26 Jul 2008) | 14 lines

Backport r837884 by tmcguire to the 4.1 branch:

Merged revisions 837823 via svnmerge from 
svn+ssh://tmcguire@svn.kde.org/home/kde/branches/kdepim/enterprise4/kdepim

........
  r837823 | tilladam | 2008-07-25 21:47:38 +0200 (Fri, 25 Jul 2008) | 4 lines
  
  If a task is done, it doesn't matter that it was due today anymore, so don't highlight it in yellow anymore.
  
  kolab/issue2696
........


------------------------------------------------------------------------
r837902 | tmcguire | 2008-07-26 01:47:31 +0200 (Sat, 26 Jul 2008) | 8 lines

Backport r837476 by tmcguire to the 4.1 branch:

setUpdatesEnabled+QTreeView=Bad

This probably fixes
CCBUG: 163228


------------------------------------------------------------------------
r837904 | tmcguire | 2008-07-26 01:50:15 +0200 (Sat, 26 Jul 2008) | 5 lines

Backport r837483 by tmcguire to the 4.1 branch:

Don't hide the mimeparttree viewer after leaving the config dialog.


------------------------------------------------------------------------
r837905 | tmcguire | 2008-07-26 01:52:04 +0200 (Sat, 26 Jul 2008) | 10 lines

Backport r837489 by tmcguire to the 4.1 branch:

Don't delete the precommand event loop from within itself.
Event loops are Evil.

This should fix precommands yet again (I hope).

CCBUG: 165453


------------------------------------------------------------------------
r837908 | tmcguire | 2008-07-26 01:56:15 +0200 (Sat, 26 Jul 2008) | 14 lines

Backport r837883 by tmcguire to the 4.1 branch:

Merged revisions 837719 via svnmerge from 
svn+ssh://tmcguire@svn.kde.org/home/kde/branches/kdepim/enterprise4/kdepim

........
  r837719 | tilladam | 2008-07-25 16:51:51 +0200 (Fri, 25 Jul 2008) | 4 lines
  
  Make the template parser process teh message before it gets passed to the composer, when creating new mails via DBus, as Kontact does, for example, when hitting the "New Mail" toolbar button. Probably also fixes To and CC header setting, via that interface, etc. Simplify logic a bit as well.
  
  kolab/issue2921
........


------------------------------------------------------------------------
r838076 | winterz | 2008-07-26 18:34:02 +0200 (Sat, 26 Jul 2008) | 5 lines

backport SVN commit 838072 by winterz:

fix "unexpected toolbars when Akregator is embedded in Konqueror"
thanks for the patch Christophe

------------------------------------------------------------------------
r838188 | scripty | 2008-07-27 06:42:37 +0200 (Sun, 27 Jul 2008) | 1 line

SVN_SILENT made messages (.desktop file)
------------------------------------------------------------------------
r838632 | mlaurent | 2008-07-28 13:22:41 +0200 (Mon, 28 Jul 2008) | 3 lines

Backport:
Fix mem leak

------------------------------------------------------------------------
r838637 | mlaurent | 2008-07-28 13:29:20 +0200 (Mon, 28 Jul 2008) | 3 lines

Backport:
Fix mem leak

------------------------------------------------------------------------
r838639 | mlaurent | 2008-07-28 13:31:57 +0200 (Mon, 28 Jul 2008) | 3 lines

Backport:
Fix other mem leak

------------------------------------------------------------------------
r838644 | mlaurent | 2008-07-28 13:41:56 +0200 (Mon, 28 Jul 2008) | 3 lines

 Backport:
Fix mem leak

------------------------------------------------------------------------
r838790 | wstephens | 2008-07-28 20:22:27 +0200 (Mon, 28 Jul 2008) | 1 line

Fix Groupwise plugin loading
------------------------------------------------------------------------
r838809 | mlaurent | 2008-07-28 21:44:45 +0200 (Mon, 28 Jul 2008) | 3 lines

Backport:
Fix mem leak

------------------------------------------------------------------------
r838811 | mlaurent | 2008-07-28 21:49:21 +0200 (Mon, 28 Jul 2008) | 3 lines

Backport:
Fix mem leak

------------------------------------------------------------------------
r838979 | mlaurent | 2008-07-29 09:04:05 +0200 (Tue, 29 Jul 2008) | 3 lines

Backport:
Fix mem leak

------------------------------------------------------------------------
r839014 | wstephens | 2008-07-29 11:35:08 +0200 (Tue, 29 Jul 2008) | 9 lines

Forward port 458570:

Fix bugs where Todos could not be marked done (wrong method called on
the server, but it didn't complain, and the semantics for indicating an
incomplete Todo are misleading), and where we got a calendar load error
on switching to the summary view. because the korganizer summary widget
and the special dates summary widget both load the calendar at the same
time, and we treated that as an error.

------------------------------------------------------------------------
r839015 | wstephens | 2008-07-29 11:38:25 +0200 (Tue, 29 Jul 2008) | 1 line

Forward port cleaned up -r458573 method return point
------------------------------------------------------------------------
r839021 | wstephens | 2008-07-29 11:48:22 +0200 (Tue, 29 Jul 2008) | 1 line

forward port 458598 and 460861 - correct return types
------------------------------------------------------------------------
r839049 | wstephens | 2008-07-29 12:31:02 +0200 (Tue, 29 Jul 2008) | 1 line

Forward port r542151 r542196 - update to GW701 schemas
------------------------------------------------------------------------
r839094 | wstephens | 2008-07-29 13:42:28 +0200 (Tue, 29 Jul 2008) | 10 lines

562217 Fix for crash when writing appointments.
565426 reinstate fix so compile works on Linux/alpha and Tru64/alpha
platforms.
580816 Temp fix for freebusy
609971 remove useless code
611550 Start of a big cleanup in the way the addressbook is fetched with
the aim of increasing robustness.  The main change is the use of a state
machine to track the state of the fetch.


------------------------------------------------------------------------
r839116 | wstephens | 2008-07-29 14:00:23 +0200 (Tue, 29 Jul 2008) | 1 line

Forward port r612301 and r612303 - Updated progress reporting
------------------------------------------------------------------------
r839128 | wstephens | 2008-07-29 14:21:43 +0200 (Tue, 29 Jul 2008) | 10 lines

Forward port r612489
Fix updating the system address book without reloading the whole thing.
Also introduce a memory optimisation.  It is a bit of a hack but can be
disabled.  The loading of the System Address Book is dependent on the
application name.  KMail, Kontact and KAddressbook are allowed to load
the SAB by default.  Other apps that use the standard address book will
not load the SAB or the resource's cache.  This reduces load times and
memory footprint.  If the SAB is needed the app name can be added to the
list in the resource config, in key "SystemAddressBookWhiteList".

------------------------------------------------------------------------
r839149 | wstephens | 2008-07-29 14:52:09 +0200 (Tue, 29 Jul 2008) | 8 lines

Forward port 
612498 Add chunked fetching of deltas for very long change sets, add
some more amd64 safety, and fix a dumb login overoptimisation
625234 Workarounds for the GW server having 2 ideas about the same email
address
629330 disabling groupwise debug log
695171 Don't crash if hostname or port are wrong

------------------------------------------------------------------------
r839458 | scripty | 2008-07-30 07:35:10 +0200 (Wed, 30 Jul 2008) | 1 line

SVN_SILENT made messages (.desktop file)
------------------------------------------------------------------------
r839462 | wstephens | 2008-07-30 07:44:29 +0200 (Wed, 30 Jul 2008) | 1 line

Create this document, fix some typos and port the embedded example to KDE 4.
------------------------------------------------------------------------
r839463 | wstephens | 2008-07-30 07:52:14 +0200 (Wed, 30 Jul 2008) | 5 lines

Disable these extra simple WSDL types, since they generate invalid code
- the marshal/demarshal methods are generated multiple times with the
  same signature.
CC:larouche@kde.org

------------------------------------------------------------------------
r839464 | wstephens | 2008-07-30 07:53:12 +0200 (Wed, 30 Jul 2008) | 3 lines

Use text/xml as the content-type, the google service insists on it.  I
hope it doesn't break anything else.

------------------------------------------------------------------------
r839466 | wstephens | 2008-07-30 07:56:16 +0200 (Wed, 30 Jul 2008) | 1 line

Add support for generating WSDL bindings that include an export macro, so they can be used in library code.
------------------------------------------------------------------------
r839487 | mlaurent | 2008-07-30 08:48:18 +0200 (Wed, 30 Jul 2008) | 3 lines

Backport:
Fix mem leak

------------------------------------------------------------------------
r839491 | mlaurent | 2008-07-30 09:01:57 +0200 (Wed, 30 Jul 2008) | 6 lines

Backport:
Fix mem leak
Clear argument
Return value


------------------------------------------------------------------------
r839493 | mlaurent | 2008-07-30 09:04:37 +0200 (Wed, 30 Jul 2008) | 3 lines

Backport:
Fix mem leak

------------------------------------------------------------------------
r839528 | wstephens | 2008-07-30 10:57:58 +0200 (Wed, 30 Jul 2008) | 1 line

Files missing from commit r839466
------------------------------------------------------------------------
r839555 | wstephens | 2008-07-30 12:34:35 +0200 (Wed, 30 Jul 2008) | 2 lines

More KTcpSocket enabling - won't receive, yet

------------------------------------------------------------------------
r839605 | wstephens | 2008-07-30 13:52:18 +0200 (Wed, 30 Jul 2008) | 1 line

This mime type should not change; the groupwise server doesn't like application/xml
------------------------------------------------------------------------
r839607 | wstephens | 2008-07-30 14:00:22 +0200 (Wed, 30 Jul 2008) | 1 line

Make the gosh darn Groupwise thing work again - use KTcpSocket's synchronous API throughout
------------------------------------------------------------------------
r839633 | wstephens | 2008-07-30 14:45:38 +0200 (Wed, 30 Jul 2008) | 2 lines

Sanity check that the socket still exists on read

------------------------------------------------------------------------
r839634 | wstephens | 2008-07-30 14:46:12 +0200 (Wed, 30 Jul 2008) | 1 line

Fix some QObject::connects() - changed KIO apis
------------------------------------------------------------------------
r839666 | wstephens | 2008-07-30 16:24:46 +0200 (Wed, 30 Jul 2008) | 3 lines

Reenable the groupwise wizard and reorganise how the groupwise resource
code is laid out so the groupware wizards can link it.

------------------------------------------------------------------------
r839683 | wstephens | 2008-07-30 16:59:52 +0200 (Wed, 30 Jul 2008) | 1 line

Use right i18n call for arguments - string unchanged
------------------------------------------------------------------------
r839684 | wstephens | 2008-07-30 17:00:37 +0200 (Wed, 30 Jul 2008) | 1 line

whoops, didn't mean to commit this
------------------------------------------------------------------------
r839697 | wstephens | 2008-07-30 17:41:52 +0200 (Wed, 30 Jul 2008) | 1 line

Add missing header ktcpsocket.h from 4.1 kdelibs
------------------------------------------------------------------------
r839904 | scripty | 2008-07-31 06:51:39 +0200 (Thu, 31 Jul 2008) | 1 line

SVN_SILENT made messages (.desktop file)
------------------------------------------------------------------------
r840219 | skelly | 2008-07-31 19:25:49 +0200 (Thu, 31 Jul 2008) | 6 lines

Save properly when running standalone. Looks like I shouldn't have removed that
code when i did... :(

CCBUG:167868


------------------------------------------------------------------------
r840356 | mueller | 2008-08-01 00:28:29 +0200 (Fri, 01 Aug 2008) | 1 line

backport link reduction fallout fixes
------------------------------------------------------------------------
r840658 | winterz | 2008-08-01 14:51:51 +0200 (Fri, 01 Aug 2008) | 6 lines

backport SVN commit 839579 by tmcguire:

Move the what's this help to the correct place.

and also run fixuifiles

------------------------------------------------------------------------
r840659 | winterz | 2008-08-01 14:52:03 +0200 (Fri, 01 Aug 2008) | 2 lines

fixuifiles

------------------------------------------------------------------------
r840661 | winterz | 2008-08-01 14:53:05 +0200 (Fri, 01 Aug 2008) | 4 lines

backport SVN commit 840343 by tmcguire:

Don't crash when running the anti-spam wizard and spam filter rules exist already.

------------------------------------------------------------------------
r840845 | winterz | 2008-08-02 01:49:55 +0200 (Sat, 02 Aug 2008) | 5 lines

backport SVN commit 840695 by tmcguire:

Make setting the cursor also work correctly when the cursor position is at the end
and a signature is appended.

------------------------------------------------------------------------
r840862 | winterz | 2008-08-02 03:31:23 +0200 (Sat, 02 Aug 2008) | 12 lines

backport SVN commit 840861 by winterz:

use Kevin's new X-KDE-PluginInfo-AllowEmptySettings to make sure
KNotes, KJots and KTimeTracker plugins show up as (de)selectable 
in the Kontact configuration dialog.

also make sure they are shown in our consistent order by changing 
the KTimeTracker weight.

Unfortunately, we still don't have the full configs for these
apps available, but at least they are (de)selectable.

------------------------------------------------------------------------
r840864 | winterz | 2008-08-02 03:39:13 +0200 (Sat, 02 Aug 2008) | 15 lines

backport SVN commit 840863 by winterz:

merge SVN commit 840125 by ervin:

Adding one more item in the test app.

AND

SVN commit 840127 by ervin:

When the dialog is shown pre-select the first item.
On dismiss, select the next item.
Also avoid skipping every second item in dismissAll().


------------------------------------------------------------------------
r840867 | winterz | 2008-08-02 03:59:30 +0200 (Sat, 02 Aug 2008) | 5 lines

backport SVN commit 840283 by tmcguire:

Fix bogus error message when deleting folders.


------------------------------------------------------------------------
r840995 | tmcguire | 2008-08-02 14:19:57 +0200 (Sat, 02 Aug 2008) | 5 lines

Backport r836740 by winterz to the 4.1 branch:

fix linking


------------------------------------------------------------------------
r841001 | tmcguire | 2008-08-02 14:33:12 +0200 (Sat, 02 Aug 2008) | 4 lines

Backport r839402 by ahartmetz to the 4.1 branch:

Some fixes for the gold linker

------------------------------------------------------------------------
r841006 | tmcguire | 2008-08-02 14:43:12 +0200 (Sat, 02 Aug 2008) | 4 lines

Backport r839628 by ahartmetz to the 4.1 branch:

Don't try to find libkdepim from our own module kdepim using cmake

------------------------------------------------------------------------
r841023 | tmcguire | 2008-08-02 15:07:55 +0200 (Sat, 02 Aug 2008) | 6 lines

Backport r839222 by tmcguire to the 4.1 branch:

Fix spellcheck language not being correctly set for some languages.
CCBUG: 166141


------------------------------------------------------------------------
r841024 | tmcguire | 2008-08-02 15:10:26 +0200 (Sat, 02 Aug 2008) | 10 lines

Backport r840346 by tmcguire to the 4.1 branch:

Make the maildir setting combobox editable again.

Anyone knows why Qt Designer insists on removing the names from
the widgets even if I didn't change anything?

CCBUG: 167845


------------------------------------------------------------------------
r841027 | tmcguire | 2008-08-02 15:12:44 +0200 (Sat, 02 Aug 2008) | 6 lines

Backport r840749 by tmcguire to the 4.1 branch:

Make the cancel button really work when the identity dialog complains about some error.
CCBUG: 168016


------------------------------------------------------------------------
r841028 | tmcguire | 2008-08-02 15:14:24 +0200 (Sat, 02 Aug 2008) | 6 lines

Backport r838403 by tmcguire to the 4.1 branch:

Paste HTML content in plain text mode, if the composer is not in HTML mode.
CCBUG: 163392


------------------------------------------------------------------------
r841031 | winterz | 2008-08-02 15:19:42 +0200 (Sat, 02 Aug 2008) | 2 lines

fix linking

------------------------------------------------------------------------
r841077 | winterz | 2008-08-02 17:15:51 +0200 (Sat, 02 Aug 2008) | 2 lines

fix linking

------------------------------------------------------------------------
r841083 | winterz | 2008-08-02 17:39:22 +0200 (Sat, 02 Aug 2008) | 2 lines

backport build system fixes, per Thomas' request

------------------------------------------------------------------------
r841235 | mlaurent | 2008-08-02 22:30:45 +0200 (Sat, 02 Aug 2008) | 3 lines

Backport:
Fix mem leak

------------------------------------------------------------------------
r841238 | winterz | 2008-08-02 22:43:10 +0200 (Sat, 02 Aug 2008) | 8 lines

backport SVN commit 841237 by winterz:

port from e3
SVN commit 840234 by vkrause:

Cache our own mail addresses retrieved from the addressbook. This speeds
up agenda item creation by nearly 20%.

------------------------------------------------------------------------
r841240 | winterz | 2008-08-02 22:44:02 +0200 (Sat, 02 Aug 2008) | 12 lines

backport SVN commit 841233 by winterz:

port from e3
SVN commit 840224 by vkrause:

Avoid calling updateEvents() if nothing has changed. Since we get
updateView() calls for all kinds of reasons and usually three in a row,
we need to monitor for relevant changes in the calendar ourselves.

This reduces the number of calls to the KCal::Calendar::events(QDate)
method which is quite expensive for large calendars considerably.

------------------------------------------------------------------------
r841598 | winterz | 2008-08-03 18:17:13 +0200 (Sun, 03 Aug 2008) | 5 lines

backport SVN commit 841596 by winterz:

fix build for newer CMake versions


------------------------------------------------------------------------
r841609 | winterz | 2008-08-03 18:47:01 +0200 (Sun, 03 Aug 2008) | 10 lines

backport SVN commit 841608 by winterz:

port e3
SVN commit 840683 by vkrause:

Replace some convenient but slow libemailfunction methods with KMime
parsing methods. Gives us another 10% speedup in agenda item creation,
with the QWidget ctor now being the most expensive call, which is what
one would expect here.

------------------------------------------------------------------------
r841704 | djarvie | 2008-08-03 23:52:31 +0200 (Sun, 03 Aug 2008) | 2 lines

Fix width of pushbuttons containing only an icon

------------------------------------------------------------------------
r841784 | scripty | 2008-08-04 06:56:12 +0200 (Mon, 04 Aug 2008) | 1 line

SVN_SILENT made messages (.desktop file)
------------------------------------------------------------------------
r841811 | mueller | 2008-08-04 08:32:35 +0200 (Mon, 04 Aug 2008) | 1 line

fix linking
------------------------------------------------------------------------
r841988 | mueller | 2008-08-04 14:40:20 +0200 (Mon, 04 Aug 2008) | 1 line

backport 837046
------------------------------------------------------------------------
r842001 | winterz | 2008-08-04 15:00:50 +0200 (Mon, 04 Aug 2008) | 5 lines

backport SVN commit 841997 by winterz:

allow vertical scrollbars, as necessary.


------------------------------------------------------------------------
r842167 | winterz | 2008-08-04 22:16:33 +0200 (Mon, 04 Aug 2008) | 4 lines

backport SVN commit 842163 by winterz:

no horizontal scrollbars

------------------------------------------------------------------------
r842186 | tmcguire | 2008-08-04 22:56:32 +0200 (Mon, 04 Aug 2008) | 6 lines

Backport r842185 by tmcguire to the 4.1 branch:

Don't know why I removed this in r837483...
Hide the mimeparttree in the attachment viewer again, since it is empty anyways.


------------------------------------------------------------------------
r842189 | tmcguire | 2008-08-04 22:57:48 +0200 (Mon, 04 Aug 2008) | 12 lines

Backport r841594 by tmcguire to the 4.1 branch:

Invalidate the folder when encountering a zero serial number.
I have still no idea why the serial number was zero in the first
place, but at least this fixes the problem that those messages
could not be displayed.

(Marc, sorry, but I re-enabled the debug output here)

CCBUG: 149715


------------------------------------------------------------------------
r842190 | tmcguire | 2008-08-04 22:58:56 +0200 (Mon, 04 Aug 2008) | 4 lines

Backport r841606 by tmcguire to the 4.1 branch:

Better replace just the single serial number, not all of them.

------------------------------------------------------------------------
r842197 | djarvie | 2008-08-04 23:14:58 +0200 (Mon, 04 Aug 2008) | 1 line

Fix width of pushbuttons containing only an icon
------------------------------------------------------------------------
r842198 | djarvie | 2008-08-04 23:16:23 +0200 (Mon, 04 Aug 2008) | 2 lines

Set correct default sound file directory

------------------------------------------------------------------------
r842274 | scripty | 2008-08-05 06:54:34 +0200 (Tue, 05 Aug 2008) | 1 line

SVN_SILENT made messages (.desktop file)
------------------------------------------------------------------------
r842301 | mueller | 2008-08-05 09:44:34 +0200 (Tue, 05 Aug 2008) | 2 lines

fix link

------------------------------------------------------------------------
r842441 | tmcguire | 2008-08-05 12:26:36 +0200 (Tue, 05 Aug 2008) | 7 lines

Backport r842439 by tmcguire to the 4.1 branch:

Also don't crash when spell checking is disabled with the context menu (which actually
disables the complete highlighter).
CCBUG: 165873


------------------------------------------------------------------------
r843162 | winterz | 2008-08-06 17:25:39 +0200 (Wed, 06 Aug 2008) | 7 lines

backport SVN commit 843038 by thiago:

Don't dereference it before you find out if it's valid.

The current code was *always* doing one invalid read at the end of every list.


------------------------------------------------------------------------
r843368 | scripty | 2008-08-07 06:48:52 +0200 (Thu, 07 Aug 2008) | 1 line

SVN_SILENT made messages (.desktop file)
------------------------------------------------------------------------
r843427 | staniek | 2008-08-07 10:42:21 +0200 (Thu, 07 Aug 2008) | 2 lines

Merge of 843425 "fix symbols export (Windows)" and 843426 "kdDebug -> kDebug"

------------------------------------------------------------------------
r844396 | pino | 2008-08-09 17:46:14 +0200 (Sat, 09 Aug 2008) | 2 lines

backport reducing dependencies fixing from trunk

------------------------------------------------------------------------
r844405 | harald | 2008-08-09 18:14:40 +0200 (Sat, 09 Aug 2008) | 1 line

fix the nepomuk-rcgen detection if kdepim is not installed into KDEDIR. Done with I-know-cmake Alex
------------------------------------------------------------------------
r844680 | djarvie | 2008-08-10 10:19:14 +0200 (Sun, 10 Aug 2008) | 2 lines

Change Control Center references to System Settings

------------------------------------------------------------------------
r844701 | mueller | 2008-08-10 11:36:36 +0200 (Sun, 10 Aug 2008) | 1 line

fix link (more)
------------------------------------------------------------------------
r844755 | djarvie | 2008-08-10 13:51:36 +0200 (Sun, 10 Aug 2008) | 2 lines

Fix Control Center -> System Settings update

------------------------------------------------------------------------
r844765 | djarvie | 2008-08-10 14:21:44 +0200 (Sun, 10 Aug 2008) | 1 line

Display default font correctly
------------------------------------------------------------------------
r844799 | djarvie | 2008-08-10 15:56:58 +0200 (Sun, 10 Aug 2008) | 2 lines

Give correct name to Japanese holiday file, so that it is displayed as "Japan"

------------------------------------------------------------------------
r845617 | mueller | 2008-08-12 09:21:05 +0200 (Tue, 12 Aug 2008) | 1 line

fix link
------------------------------------------------------------------------
r845900 | djarvie | 2008-08-12 17:42:21 +0200 (Tue, 12 Aug 2008) | 2 lines

Remove font/colour sample and show colour in text edit box instead

------------------------------------------------------------------------
r846111 | winterz | 2008-08-13 02:54:00 +0200 (Wed, 13 Aug 2008) | 4 lines

backport SVN commit 846110 by winterz:

fix "Resize of Full-Day portion of calendar does not persist on re-open"

------------------------------------------------------------------------
r846140 | scripty | 2008-08-13 07:32:57 +0200 (Wed, 13 Aug 2008) | 1 line

SVN_SILENT made messages (.desktop file)
------------------------------------------------------------------------
r846413 | harald | 2008-08-13 14:46:20 +0200 (Wed, 13 Aug 2008) | 1 line

usability fix: add a busy cursor and a progress bar while checking for imap and pop capabilities to give visual feedback to the user that something is happening
------------------------------------------------------------------------
r846481 | winterz | 2008-08-13 16:59:26 +0200 (Wed, 13 Aug 2008) | 4 lines

backport SVN commit 846479 by winterz:

Move All Soul's Day from 10/31 to 11/2

------------------------------------------------------------------------
r846789 | mueller | 2008-08-14 09:04:19 +0200 (Thu, 14 Aug 2008) | 1 line

fix link (more)
------------------------------------------------------------------------
r847220 | winterz | 2008-08-15 03:00:47 +0200 (Fri, 15 Aug 2008) | 4 lines

backport SVN commit 847219 by winterz:

fix bug "reoccurrence dialog has no cancel button"

------------------------------------------------------------------------
r847248 | scripty | 2008-08-15 06:54:10 +0200 (Fri, 15 Aug 2008) | 1 line

SVN_SILENT made messages (.desktop file)
------------------------------------------------------------------------
r847531 | winterz | 2008-08-15 17:23:26 +0200 (Fri, 15 Aug 2008) | 6 lines

backport SVN commit 847268 by finex:

* When a template is applied, it will use the start/end date 
(if present).
* Apply a template with double click on template list.

------------------------------------------------------------------------
r847572 | djarvie | 2008-08-15 19:46:12 +0200 (Fri, 15 Aug 2008) | 1 line

Tidy
------------------------------------------------------------------------
r847577 | djarvie | 2008-08-15 19:54:24 +0200 (Fri, 15 Aug 2008) | 2 lines

Fix crash when birthday dialogue is opened for a second time

------------------------------------------------------------------------
r847622 | winterz | 2008-08-15 21:38:11 +0200 (Fri, 15 Aug 2008) | 5 lines

backport SVN commit 847417 by kloecker:

Center the current message when selecting multiple messages with Shift+Left/Right. This is consistent with the behavior of most other actions (like going to next/previous [unread] message).


------------------------------------------------------------------------
r847636 | ereslibre | 2008-08-15 22:49:03 +0200 (Fri, 15 Aug 2008) | 2 lines

Backport of fix. Navigation bar now is correctly aligned

------------------------------------------------------------------------
r848139 | scripty | 2008-08-17 07:04:28 +0200 (Sun, 17 Aug 2008) | 1 line

SVN_SILENT made messages (.desktop file)
------------------------------------------------------------------------
r848370 | winterz | 2008-08-17 16:19:23 +0200 (Sun, 17 Aug 2008) | 6 lines

backport (requested by Albert) SVN commit 848367 by winterz:

comment out the entire TradeAsFamily option since:
1) it doesn't seem to do anything useful
2) the i18n string is very confusing to everyone, esp the translators

------------------------------------------------------------------------
r848473 | mueller | 2008-08-17 22:46:18 +0200 (Sun, 17 Aug 2008) | 1 line

link
------------------------------------------------------------------------
r848556 | scripty | 2008-08-18 07:08:48 +0200 (Mon, 18 Aug 2008) | 1 line

SVN_SILENT made messages (.desktop file)
------------------------------------------------------------------------
r849102 | mueller | 2008-08-19 02:05:35 +0200 (Tue, 19 Aug 2008) | 2 lines

fix link

------------------------------------------------------------------------
r849181 | mueller | 2008-08-19 09:07:18 +0200 (Tue, 19 Aug 2008) | 2 lines

fix link

------------------------------------------------------------------------
r849940 | ereslibre | 2008-08-20 16:03:15 +0200 (Wed, 20 Aug 2008) | 2 lines

Backport of fix. This will always update the size of the sidebar properly

------------------------------------------------------------------------
r850011 | osterfeld | 2008-08-20 18:18:07 +0200 (Wed, 20 Aug 2008) | 3 lines

backport: use sensible maximum values
CCBUG:165774

------------------------------------------------------------------------
r850178 | krake | 2008-08-21 00:26:27 +0200 (Thu, 21 Aug 2008) | 2 lines

Fix: use dynamic_cast to check for ResourceABC instead of checking for a base class which does not longer exist

------------------------------------------------------------------------
r850555 | osterfeld | 2008-08-21 20:42:55 +0200 (Thu, 21 Aug 2008) | 15 lines

backport from trunk:

CCBUG:130949

SVN commit 849117 by rytilahti:

make article -> send link address and send file work for the articlelist selections.
this commit also makes it work correctly, current behaviour is this:
- the title of the mail is set to the title of the article/webpage always.
- the link is appended to the body of the message when send link address is selected.
- the linked webpage gets attached to the mail when send file is selected.

may I backport this?


------------------------------------------------------------------------
r850556 | osterfeld | 2008-08-21 20:45:10 +0200 (Thu, 21 Aug 2008) | 11 lines

backport from trunk:

SVN commit 849150 by rytilahti:

make javascript's self.close() links to work by catching kpart's destroyed() signal and 
closing the tab based on that. this makes it possible to close kde-apps/kde-look screenshot 
pages by clicking 
the image.

CCBUGS:110308

------------------------------------------------------------------------
r850557 | osterfeld | 2008-08-21 20:47:02 +0200 (Thu, 21 Aug 2008) | 14 lines

backport from trunk:

SVN commit 849243 by rytilahti:

don't leak so much memory when changing between feeds.

totally unscientific measurements done with ksysguard and by swithing between all feeds 
(9189 total/35011 unread) and slashdot (3435/3930):
startup: 35,048K, switch to all: 44,336K, slashdot: 41,876K, all: 44,824K, slashdot: 42,696K
does still seem to leak, but nothing like it used to be (switching between all and slashdot 
it took approx 8MB)

CCBUG:164334

------------------------------------------------------------------------
r850558 | osterfeld | 2008-08-21 20:48:14 +0200 (Thu, 21 Aug 2008) | 10 lines

backport from trunk:

SVN commit 849392 by rytilahti:

don't leak khtmlparts.. call deleteLater() to Frame so that its private class will get 
removed, KTabWidget::removeTab() doesn't do it automatically. for some reason it still gives 
stale /KHTML<id> 
entries via dbus interface, even though /KHTML<id>/widgets are removed. if someone knows a 
reason for this, please ping me..

------------------------------------------------------------------------
r850564 | osterfeld | 2008-08-21 20:55:06 +0200 (Thu, 21 Aug 2008) | 6 lines

backport from trunk, except for GUI changes:

SVN commit 849411 by rytilahti:

enable ability to disable the introduction page

------------------------------------------------------------------------
r850567 | osterfeld | 2008-08-21 20:58:59 +0200 (Thu, 21 Aug 2008) | 7 lines

backport from trunk:
SVN commit 849458 by rytilahti:

set Ok to be default for feedproperties dialog so one can use enter to accept it.

CCBUG:164267

------------------------------------------------------------------------
r850569 | osterfeld | 2008-08-21 21:03:34 +0200 (Thu, 21 Aug 2008) | 1 line

SVN_SILENT ++compile
------------------------------------------------------------------------
r850663 | rytilahti | 2008-08-22 01:24:54 +0200 (Fri, 22 Aug 2008) | 2 lines

backport tabwidget to use qtoolbutton instead of qpushbutton

------------------------------------------------------------------------
r850676 | rytilahti | 2008-08-22 02:15:16 +0200 (Fri, 22 Aug 2008) | 5 lines

backport:
use a singleshot timer to add the favicon listener. randomizes the timer's timeout between 1-4000ms, hope it isn't too much. this causes gui to show-up before starting 
doing the
fetches and behave nicer for the user.

------------------------------------------------------------------------
r851002 | osterfeld | 2008-08-22 20:19:11 +0200 (Fri, 22 Aug 2008) | 1 line

backport: avoid empty tabs, do not connect to createNewWindow twice
------------------------------------------------------------------------
r851207 | tmcguire | 2008-08-23 11:44:36 +0200 (Sat, 23 Aug 2008) | 4 lines

Backport r840117 by wstephens to the 4.1 branch:

Fix a couple of layout bugs, email address validation, and a broken connection

------------------------------------------------------------------------
r851208 | tmcguire | 2008-08-23 11:46:28 +0200 (Sat, 23 Aug 2008) | 11 lines

Backport r840318 by wstephens to the 4.1 branch:

Write the kmail account type correctly for KDE 4 KMail.  

Should fix the Kolab bug about kolabwizard not setting up receiving
accounts correctly, please test.
CCMAIL: adam@kde.org
CCMAIL: ervin@kde.org



------------------------------------------------------------------------
r851209 | tmcguire | 2008-08-23 11:49:13 +0200 (Sat, 23 Aug 2008) | 4 lines

Backport r840342 by wstephens from trunk to the 4.1 branch:

Use more likely server defaults, and fix the email address suggestion code

------------------------------------------------------------------------
r851211 | tmcguire | 2008-08-23 11:50:48 +0200 (Sat, 23 Aug 2008) | 8 lines

Backport r848363 by tmcguire from trunk to the 4.1 branch:

Delay the tip window until after the main window is shown, to avoid
focus stealing problems.

CCBUG: 169317


------------------------------------------------------------------------
r851213 | tmcguire | 2008-08-23 11:52:14 +0200 (Sat, 23 Aug 2008) | 14 lines

Backport r850648 by tmcguire from trunk to the 4.1 branch:

Merged revisions 850548 via svnmerge from 
svn+ssh://tmcguire@svn.kde.org/home/kde/branches/kdepim/enterprise4/kdepim

........
  r850548 | vkrause | 2008-08-21 20:22:42 +0200 (Thu, 21 Aug 2008) | 4 lines
  
  Select the item above as next one if there is no item below.
  
  Kolab issue 2751
........


------------------------------------------------------------------------
r851215 | tmcguire | 2008-08-23 12:06:30 +0200 (Sat, 23 Aug 2008) | 10 lines

Backport r844091 by marten from trunk to the 4.1 branch:

Recipients picker: fix all of the widgets and buttons being squashed together
with no space between them.  Use addLayout() instead of addItem() so that the
spacing gets properly inherited (Qt documentation says "addItem is not
usually called in application code").

Use the wonderful new QFormLayout for the address book and search rows.


------------------------------------------------------------------------
r851216 | tmcguire | 2008-08-23 12:12:29 +0200 (Sat, 23 Aug 2008) | 12 lines

Backport r847987 by tmcguire from trunk to the 4.1 branch:

Don't duplicate attachment handling code in the mime part tree.
This fixes crashes when viewing loaded-on-demand attachments via the mime tree,
since it would not set mAtmUpdate correctly, which prevents re-creating the part
tree when the part is retrived. Re-creating the part-tree would make the pointers
inside the map of the load parts command invalid and therefore trigger a crash.

CCBUG: 136145



------------------------------------------------------------------------
r851218 | tmcguire | 2008-08-23 12:15:12 +0200 (Sat, 23 Aug 2008) | 5 lines

Backport r848394 by tmcguire from trunk to the 4.1 branch:

Remove duplicated actions introduced in r691932.


------------------------------------------------------------------------
r851219 | tmcguire | 2008-08-23 12:17:28 +0200 (Sat, 23 Aug 2008) | 24 lines

Backport r849567 by tmcguire from trunk to the 4.1 branch:

Merged revisions 842562,842566,847515 via svnmerge from 
svn+ssh://tmcguire@svn.kde.org/home/kde/branches/kdepim/enterprise4/kdepim

........
  r842562 | ervin | 2008-08-05 16:43:02 +0200 (Tue, 05 Aug 2008) | 6 lines
  
  Don't blindly switch to another kontact component when the user clicks
  or the selection change.
  
  Fixes kolab/issue2916.
........
  r842566 | ervin | 2008-08-05 16:51:29 +0200 (Tue, 05 Aug 2008) | 3 lines
  
  Fix my brain damage induced typo. And learn that surprisingly
  mouseButtonClicked() is not emitted when a context menu is triggered...
........
  r847515 | tilladam | 2008-08-15 16:32:12 +0200 (Fri, 15 Aug 2008) | 1 line
  
  Not one of Kevin's better days .... ;)
........


------------------------------------------------------------------------
r851220 | tmcguire | 2008-08-23 12:19:15 +0200 (Sat, 23 Aug 2008) | 31 lines

Backport r849571 by tmcguire from trunk to the 4.1 branch:

Merged revisions 842664 via svnmerge from 
svn+ssh://tmcguire@svn.kde.org/home/kde/branches/kdepim/enterprise4/kdepim

................
  r842664 | vkrause | 2008-08-05 20:29:45 +0200 (Tue, 05 Aug 2008) | 21 lines
  
  Merged revisions 842115-842659 via svnmerge from 
  https://vkrause@svn.kde.org/home/kde/branches/kdepim/enterprise/kdepim
  
  ........
    r842115 | vkrause | 2008-08-04 20:31:32 +0200 (Mon, 04 Aug 2008) | 5 lines
    
    Don't rewrite a just deleted folder configuration. This fixes recreation
    of a just deleted folder.
    
    Kolab issue 2933
  ........
    r842659 | vkrause | 2008-08-05 20:13:00 +0200 (Tue, 05 Aug 2008) | 7 lines
    
    Don't try to delete the job again if the error handling code already
    killed all of them. Fixes a crash when copying a message into a
    read-only folder before we know it actually is read-only and selecting
    cancel in the subsequent error dialog.
    
    Kolab issue 2850
  ........
................


------------------------------------------------------------------------
r851221 | tmcguire | 2008-08-23 12:20:32 +0200 (Sat, 23 Aug 2008) | 8 lines

Backport r850028 by tmcguire from trunk to the 4.1 branch:

Don't attempt do execute an IMAP job when there is no connection.
This fixes a crash when the user tries to copy a mail and the
password dialog is currently shown (because the slave is 0).



------------------------------------------------------------------------
r851222 | tmcguire | 2008-08-23 12:21:42 +0200 (Sat, 23 Aug 2008) | 21 lines

Backport r850584 by tmcguire from trunk to the 4.1 branch:

Merged revisions 849956 via svnmerge from 
svn+ssh://tmcguire@svn.kde.org/home/kde/branches/kdepim/enterprise4/kdepim

................
  r849956 | ervin | 2008-08-20 16:14:46 +0200 (Wed, 20 Aug 2008) | 11 lines
  
  Merged revisions 748425 via svnmerge from 
  svn+ssh://ervin@svn.kde.org/home/kde/branches/kdepim/enterprise/kdepim
  
  ........
    r748425 | vkrause | 2007-12-14 14:24:02 +0100 (Fri, 14 Dec 2007) | 4 lines
    
    Fix crash when pressing Delete while viewing a single message part.
    
    Kolab issue 2344
  ........
................


------------------------------------------------------------------------
r851223 | tmcguire | 2008-08-23 12:23:25 +0200 (Sat, 23 Aug 2008) | 20 lines

Backport r850587 by tmcguire from trunk to the 4.1 branch:

Merged revisions 850308 via svnmerge from 
svn+ssh://tmcguire@svn.kde.org/home/kde/branches/kdepim/enterprise4/kdepim

................
  r850308 | ervin | 2008-08-21 10:47:39 +0200 (Thu, 21 Aug 2008) | 10 lines
  
  Merged revisions 769033 via svnmerge from 
  svn+ssh://ervin@svn.kde.org/home/kde/branches/kdepim/enterprise/kdepim
  
  ........
    r769033 | tilladam | 2008-01-31 10:15:22 +0100 (Thu, 31 Jan 2008) | 3 lines
    
    Update the word wrap in current composers when it changes globally.
    kolab/issue1841
  ........
................


------------------------------------------------------------------------
r851226 | tmcguire | 2008-08-23 12:28:46 +0200 (Sat, 23 Aug 2008) | 20 lines

Backport r850588 by tmcguire from trunk to the 4.1 branch:

Merged revisions 850326 via svnmerge from 
svn+ssh://tmcguire@svn.kde.org/home/kde/branches/kdepim/enterprise4/kdepim

................
  r850326 | ervin | 2008-08-21 11:27:13 +0200 (Thu, 21 Aug 2008) | 10 lines
  
  Merged revisions 769035 via svnmerge from 
  svn+ssh://ervin@svn.kde.org/home/kde/branches/kdepim/enterprise/kdepim
  
  ........
    r769035 | tilladam | 2008-01-31 10:28:46 +0100 (Thu, 31 Jan 2008) | 3 lines
    
    Don't change the size and splitter layout when reloading the configuration.
    kolab/issue1843
  ........
................


------------------------------------------------------------------------
r851227 | tmcguire | 2008-08-23 12:32:31 +0200 (Sat, 23 Aug 2008) | 25 lines

Backport r850646 by tmcguire from trunk to the 4.1 branch:

Merged revisions 850381 via svnmerge from 
svn+ssh://tmcguire@svn.kde.org/home/kde/branches/kdepim/enterprise4/kdepim

................
  r850381 | pradeepto | 2008-08-21 13:51:54 +0200 (Thu, 21 Aug 2008) | 15 lines
  
  Merged revisions 830100-830132,830134-830443 via svnmerge from 
  svn+ssh://pradeepto@svn.kde.org/home/kde/branches/kdepim/enterprise/kdepim
  
  ........
    r830100 | pradeepto | 2008-07-10 00:29:32 +0530 (Thu, 10 Jul 2008) | 4 lines
    
     -- kolab/issue2607 sync loop after deactivation of autosync.
          -- Check if the mail-check-interval changed to 0 / was disabled by the user and if yes, de-install the timer so that it doesn't trigger off
     and start a sync again and again.
  ........
    r830443 | pradeepto | 2008-07-10 19:26:46 +0530 (Thu, 10 Jul 2008) | 1 line
    
    --virtual, thanks David.
  ........
................


------------------------------------------------------------------------
r851233 | tmcguire | 2008-08-23 12:50:39 +0200 (Sat, 23 Aug 2008) | 1 line

Up the version number.
------------------------------------------------------------------------
r852004 | scripty | 2008-08-25 07:26:31 +0200 (Mon, 25 Aug 2008) | 1 line

SVN_SILENT made messages (.desktop file)
------------------------------------------------------------------------
r852545 | djarvie | 2008-08-26 01:31:09 +0200 (Tue, 26 Aug 2008) | 2 lines

Show background colour selector for file display alarms.

------------------------------------------------------------------------
r852562 | ereslibre | 2008-08-26 02:33:02 +0200 (Tue, 26 Aug 2008) | 2 lines

Backport fix for toolbars

------------------------------------------------------------------------
r852752 | osterfeld | 2008-08-26 16:14:30 +0200 (Tue, 26 Aug 2008) | 1 line

backport: center selected article when scrolling
------------------------------------------------------------------------
r852763 | osterfeld | 2008-08-26 16:38:41 +0200 (Tue, 26 Aug 2008) | 1 line

backport: set = as additional shortcut for next unread article
------------------------------------------------------------------------
r852783 | osterfeld | 2008-08-26 17:40:21 +0200 (Tue, 26 Aug 2008) | 1 line

SVN_SILENT bump version for 4.1
------------------------------------------------------------------------
r852799 | osterfeld | 2008-08-26 18:32:18 +0200 (Tue, 26 Aug 2008) | 1 line

backport: make Open In Tab action work
------------------------------------------------------------------------
r853021 | krake | 2008-08-27 02:57:10 +0200 (Wed, 27 Aug 2008) | 10 lines

Backport of fix in Rev 853019:

Fixing a crash (actually an assert in Qt) when saveSettings() was called without any configuration done, thus
mAddressBookBox->currentIndex()
returning -1

Qt4's QList::operator[] is less forgiving than Qt3's QValueList::operator[] when an out of bound index is used.
QList::value() returns a default element, in this case QString() which is acceptable.


------------------------------------------------------------------------
r853123 | thrainer | 2008-08-27 11:23:58 +0200 (Wed, 27 Aug 2008) | 6 lines

Backporting commit 852935.

Store the settings of the todo view in the sidebar in a separate config group. Now the settings of both the main todo view and the one in the sidebar are 
stored correctly.


------------------------------------------------------------------------
r853128 | krake | 2008-08-27 11:34:48 +0200 (Wed, 27 Aug 2008) | 6 lines

Backport of fix in Rev 850643

Some resources, e.g. especially sub resource using ones, need GUI internally, so there is no point in trying to be headless since such resource will just crash



------------------------------------------------------------------------
r853314 | tmcguire | 2008-08-27 16:27:44 +0200 (Wed, 27 Aug 2008) | 8 lines

Backport r853307 by tmcguire from trunk to the 4.1 branch:

- Load the value for "exchange compatible initation naming" into the checkbox
- Get rid of some manual config writing/reading

CCBUG: 169921


------------------------------------------------------------------------
r853365 | ereslibre | 2008-08-27 18:10:47 +0200 (Wed, 27 Aug 2008) | 2 lines

Backport rev 853364. Save settings of current plugin when closing the window by closing the app

------------------------------------------------------------------------
r853367 | ereslibre | 2008-08-27 18:17:11 +0200 (Wed, 27 Aug 2008) | 2 lines

Backport of rev 853366

------------------------------------------------------------------------
r853378 | wstephens | 2008-08-27 18:31:44 +0200 (Wed, 27 Aug 2008) | 2 lines

Backport r840344, thanks, Allen.

------------------------------------------------------------------------
r853510 | djarvie | 2008-08-27 22:00:28 +0200 (Wed, 27 Aug 2008) | 2 lines

Prevent quitting when main window is closed but system tray icon is visible.

------------------------------------------------------------------------
r853545 | djarvie | 2008-08-27 22:53:41 +0200 (Wed, 27 Aug 2008) | 2 lines

Fix formatting of file display alarms for non-HTML text files.

------------------------------------------------------------------------
