------------------------------------------------------------------------
r1160394 | whiting | 2010-08-08 01:57:32 +0100 (dg, 08 ago 2010) | 2 lines

Fix Mainpage.dox to use jovie instead of kttsd for the folder name.

------------------------------------------------------------------------
