------------------------------------------------------------------------
r1186037 | scripty | 2010-10-15 15:55:37 +1300 (Fri, 15 Oct 2010) | 1 line

SVN_SILENT made messages (.desktop file)
------------------------------------------------------------------------
